0.22,0.02
0.22,0.03
0.22,0.04
0.22,0.05
0.22,0.06
0.22,0.07
0.22,0.08
0.22,0.09
0.22,0.1
0.22,0.11
0.22,0.12
0.22,0.13
0.22,0.14
0.22,0.15
0.22,0.16
0.22,0.17
0.22,0.18
0.22,0.19
0.22,0.2
0.22,0.21
0.22,0.22
0.22,0.23
0.22,0.24
0.22,0.25
0.22,0.26
0.22,0.27
0.22,0.28
0.22,0.29
0.22,0.3
0.22,0.31
0.22,0.32
0.22,0.33
0.22,0.34
0.22,0.35
0.22,0.36
0.22,0.37
0.22,0.38
0.22,0.39
0.22,0.4
0.22,0.41
0.22,0.42
0.22,0.43
0.22,0.44
0.22,0.45
0.22,0.46
0.22,0.47
0.22,0.48
0.23,0.48
0.24,0.48
0.25,0.48
0.26,0.48
0.27,0.48
0.28,0.48
0.29,0.48
0.3,0.48
0.31,0.48
0.32,0.48
0.33,0.48
0.34,0.47
0.36,0.46
0.37,0.45
0.38,0.44
0.39,0.43
0.4,0.42
0.41,0.41
0.42,0.4
0.43,0.39
0.44,0.38
0.45,0.37
0.46,0.36
0.47,0.35
0.46,0.34
0.45,0.33
0.44,0.31
0.43,0.3
0.42,0.29
0.41,0.28
0.4,0.27
0.39,0.26
0.38,0.25
0.37,0.24
0.36,0.24
0.35,0.24
0.34,0.24
0.33,0.24
0.32,0.24
0.31,0.24
0.3,0.24
0.29,0.24
0.28,0.24
0.27,0.24
0.26,0.24
0.25,0.24
0.24,0.24
0.23,0.24
0.22,0.24
0.22,0.24
0.23,0.24
0.24,0.24
0.25,0.24
0.26,0.24
0.27,0.24
0.28,0.24
0.29,0.24
0.3,0.24
0.31,0.24
0.32,0.24
0.33,0.24
0.34,0.24
0.36,0.24
0.37,0.23
0.38,0.22
0.39,0.21
0.4,0.2
0.41,0.19
0.42,0.18
0.43,0.17
0.44,0.16
0.45,0.15
0.46,0.14
0.47,0.13
0.46,0.12
0.45,0.11
0.44,0.1
0.43,0.09
0.42,0.08
0.41,0.07
0.4,0.06
0.39,0.05
0.38,0.04
0.37,0.03
0.36,0.02
0.35,0.02
0.34,0.02
0.33,0.02
0.32,0.02
0.31,0.02
0.3,0.02
0.29,0.02
0.28,0.02
0.27,0.02
0.26,0.02
0.25,0.02
0.24,0.02
0.23,0.02
0.22,0.02
