0.22,0.02
0.22,0.03
0.22,0.04
0.22,0.05
0.22,0.06
0.22,0.07
0.22,0.08
0.22,0.09
0.22,0.1
0.22,0.11
0.22,0.12
0.22,0.13
0.22,0.14
0.22,0.15
0.22,0.16
0.22,0.17
0.22,0.18
0.22,0.19
0.22,0.2
0.22,0.21
0.22,0.22
0.22,0.23
0.22,0.24
0.22,0.25
0.22,0.26
0.22,0.27
0.22,0.28
0.22,0.29
0.22,0.3
0.22,0.31
0.22,0.32
0.22,0.33
0.22,0.34
0.22,0.35
0.22,0.36
0.22,0.37
0.22,0.38
0.22,0.39
0.22,0.4
0.22,0.41
0.22,0.42
0.22,0.43
0.22,0.44
0.22,0.45
0.22,0.46
0.22,0.47
0.22,0.48
0.23,0.47
0.24,0.46
0.25,0.45
0.26,0.44
0.27,0.43
0.28,0.42
0.29,0.41
0.3,0.4
0.31,0.39
0.32,0.38
0.33,0.37
0.34,0.36
0.35,0.35
0.36,0.34
0.37,0.33
0.37,0.34
0.38,0.35
0.39,0.36
0.4,0.37
0.41,0.38
0.42,0.39
0.43,0.4
0.44,0.41
0.45,0.42
0.46,0.43
0.47,0.44
0.48,0.45
0.49,0.46
0.5,0.47
0.51,0.48
0.51,0.47
0.51,0.46
0.51,0.45
0.51,0.44
0.51,0.43
0.51,0.42
0.51,0.41
0.51,0.4
0.51,0.39
0.51,0.38
0.51,0.37
0.51,0.36
0.51,0.35
0.51,0.34
0.51,0.33
0.51,0.32
0.51,0.31
0.51,0.3
0.51,0.29
0.51,0.28
0.51,0.27
0.51,0.26
0.51,0.25
0.51,0.24
0.51,0.23
0.51,0.22
0.51,0.21
0.51,0.2
0.51,0.19
0.51,0.18
0.51,0.17
0.51,0.16
0.51,0.15
0.51,0.14
0.51,0.13
0.51,0.12
0.51,0.11
0.51,0.1
0.51,0.09
0.51,0.08
0.51,0.07
0.51,0.06
0.51,0.05
0.51,0.04
0.51,0.03
0.51,0.02
